
                         Default Disk =   D:
                  Default User Number =   00
                      Default Printer =   00
              Current Virtual Console =   02
                      Background Mode =   DYNAMIC
                         Buffer Space =   0010K
           Maximum Memory Per Process =   4000  PARA
           Number of Virtual Consoles =   08
                   Number of Printers =   05
                      Temporary Drive =   D:
                         System Drive =   D:
                     Ticks Per Second =   3C
                      Day File Option =   YES
                   BDOS Compatability =   YES
                      Number of Flags =   20
               Free Queue Descriptors =   2A
                    Free Queue Buffer =   0B37 BYTES
             Free Process Descriptors =   36
              Free Memory Descriptors =   C1

     Type any key to leave and return to main menu.

